{
  "totalRecords": 100,
  "totalPages": 10,
  "pageNumber": 1,
  "pageSize": 10,
  "data": [
    {
      "lockerId": "b7d8c05",
      "name": "1001",
      "lockType": "Kodlås",
      "building": "Huvudbyggnad",
      "buildingFloor": "2",
      "assignedTo": {
        "pupilName": "Karin Andersson",
        "className": "CL1SCHOOL1"
      },
      "unitId": "1234",
      "status": "Tilldelad",
      "codeLockId": "123-C46",
      "activeCodeId": 2,
      "activeCode": "234234"
    },
    {
      "lockerId": "44a1eaf",
      "name": "1002",
      "lockType": "Kodlås",
      "building": "Huvudbyggnad",
      "buildingFloor": "2",
      "assignedTo": {
        "pupilName": "Anders Andersson",
        "className": "CL2SCHOOL1"
      },
      "unitId": "1234",
      "status": "Tilldelad",
      "codeLockId": "123-C41",
      "activeCodeId": 5,
      "activeCode": "114047"
    },
    {
      "lockerId": "bd1a846",
      "name": "1004",
      "lockType": "Kodlås",
      "building": "Huvudbyggnad",
      "buildingFloor": "Källare",
      "assignedTo": {
        "pupilName": "William Syd",
        "className": "CL2SCHOOL1"
      },
      "unitId": "1234",
      "status": "Tilldelad",
      "codeLockId": "123-C04",
      "activeCodeId": 2,
      "activeCode": "212547"
    },
    {
      "lockerId": "0134de3",
      "name": "1007",
      "lockType": "Kodlås",
      "building": "Huvudbyggnad",
      "buildingFloor": "1",
      "assignedTo": {
        "pupilName": "Johanna Jonsson",
        "className": "CL2SCHOOL1"
      },
      "unitId": "1234",
      "status": "Tilldelad",
      "codeLockId": "123-C92",
      "activeCodeId": 3,
      "activeCode": "310347"
    },
    {
      "lockerId": "592fcc1",
      "name": "1008",
      "lockType": "Kodlås",
      "building": "Huvudbyggnad",
      "buildingFloor": "2",
      "assignedTo": {
        "pupilName": "Anders Svensson",
        "className": "CL3SCHOOL1"
      },
      "unitId": "1234",
      "status": "Tilldelad",
      "codeLockId": "123-C91",
      "activeCodeId": 2,
      "activeCode": "112847"
    },
    {
      "lockerId": "ad6c358",
      "name": "1009",
      "lockType": "Kodlås",
      "building": "Annex",
      "buildingFloor": "1",
      "assignedTo": {
        "pupilName": "Lisa Andersson",
        "className": "CL3SCHOOL1"
      },
      "unitId": "1234",
      "status": "Tilldelad",
      "codeLockId": "123-C69",
      "activeCodeId": 1,
      "activeCode": "114747"
    },
    {
      "lockerId": "8c11dff",
      "name": "1010",
      "lockType": "Kodlås",
      "building": "Annex",
      "buildingFloor": "2",
      "assignedTo": null,
      "unitId": "1234",
      "status": "Ledigt",
      "codeLockId": "123-C68",
      "activeCodeId": 1,
      "activeCode": "311847"
    },
    {
      "lockerId": "3c90448d",
      "name": "1040",
      "lockType": "Kodlås",
      "building": "Annex",
      "buildingFloor": "1",
      "assignedTo": null,
      "unitId": "1234",
      "status": "Ledigt",
      "codeLockId": "123-C64",
      "activeCodeId": 2,
      "activeCode": "234234"
    },
    {
      "lockerId": "ca27a329",
      "name": "1041",
      "lockType": "Hänglås",
      "building": "Flygeln",
      "buildingFloor": "1",
      "assignedTo": null,
      "unitId": "1234",
      "status": "Ska Tömmas",
      "codeLockId": null,
      "activeCodeId": null,
      "activeCode": null
    },
    {
      "lockerId": "fb26b392",
      "name": "1042",
      "lockType": "Hänglås",
      "building": "Flygeln",
      "buildingFloor": "1",
      "assignedTo": {
        "pupilName": "Eva Bäckman",
        "className": "CL1SCHOOL1"
      },
      "unitId": "1234",
      "status": "Tilldelad",
      "codeLockId": null,
      "activeCodeId": null,
      "activeCode": null
    }
  ]
}
